   1   1
   13.1939   42.8038   10.8750    0.0000
   13.1939   42.8038   12.6250    0.0000
   13.1939   42.8038   14.3750    0.0000
   13.1939   42.8038   16.1250    0.0000
   13.1939   42.8038   17.8750    0.0000
   13.1939   42.8038   19.6250    0.0000
   13.1939   42.8038   21.3750    0.0000
   13.1939   42.8038   23.1250    0.0000
   13.1939   42.8038   24.8750    0.0000
   13.1939   42.8038   26.6250    0.0000
   13.1939   42.8038   28.3750    0.0000
   13.1939   42.8038   30.1250    0.0000
   13.1939   42.8038   31.8750    0.0000
   13.1939   42.8038   33.6250    0.0000
   13.1939   42.8038   35.3750    0.0000
   13.1939   42.8038   37.1250    0.0000
   13.1939   42.8038   38.8750    0.0000
   13.1939   42.8038   40.6250    0.0000
   13.1939   42.8038   42.3750    0.0000
   13.1939   42.8038   44.1250    0.0000
   13.1939   42.8038   45.8750    0.0000
   13.1939   42.8038   47.6250    0.0000
   13.1939   42.8038   49.3750    0.0000
   13.1939   42.8038   51.1250    0.0000
   13.1939   42.8038   52.8750    0.0000
   13.1939   42.8038   54.6250    0.0000
   13.1939   42.8038   56.3750    0.0000
   13.1939   42.8038   58.1250    0.0000
   13.1939   42.8038   59.8750    1.0000
   13.1939   42.8038   61.6250    0.0000
   13.1939   42.8038   63.3750    0.0000
   13.1939   42.8038   65.1250    0.0000
   13.1939   42.8038   66.8750    0.0000
   13.1939   42.8038   68.6250    0.0000
   13.1939   42.8038   70.3750    0.0000
   13.1939   42.8038   72.1250    0.0000
   13.1939   42.8038   73.8750    0.0000
   13.1939   42.8038   75.6250    0.0000
   13.1939   42.8038   77.3750    0.0000
   13.1939   42.8038   79.1250    0.0000
   13.1939   42.8162   10.8750    0.0000
   13.1939   42.8162   12.6250    0.0000
   13.1939   42.8162   14.3750    0.0000
   13.1939   42.8162   16.1250    0.0000
   13.1939   42.8162   17.8750    0.0000
   13.1939   42.8162   19.6250    0.0000
   13.1939   42.8162   21.3750    0.0000
   13.1939   42.8162   23.1250    0.0000
   13.1939   42.8162   24.8750    0.0000
   13.1939   42.8162   26.6250    0.0000
   13.1939   42.8162   28.3750    0.0000
   13.1939   42.8162   30.1250    0.0000
   13.1939   42.8162   31.8750    0.0000
   13.1939   42.8162   33.6250    0.0000
   13.1939   42.8162   35.3750    0.0000
   13.1939   42.8162   37.1250    0.0000
   13.1939   42.8162   38.8750    0.0000
   13.1939   42.8162   40.6250    0.0000
   13.1939   42.8162   42.3750    0.0000
   13.1939   42.8162   44.1250    0.0000
   13.1939   42.8162   45.8750    0.0000
   13.1939   42.8162   47.6250    0.0000
   13.1939   42.8162   49.3750    0.0000
   13.1939   42.8162   51.1250    0.0000
   13.1939   42.8162   52.8750    0.0000
   13.1939   42.8162   54.6250    0.0000
   13.1939   42.8162   56.3750    0.0000
   13.1939   42.8162   58.1250    0.0000
   13.1939   42.8162   59.8750    1.0000
   13.1939   42.8162   61.6250    0.0000
   13.1939   42.8162   63.3750    0.0000
   13.1939   42.8162   65.1250    0.0000
   13.1939   42.8162   66.8750    0.0000
   13.1939   42.8162   68.6250    0.0000
   13.1939   42.8162   70.3750    0.0000
   13.1939   42.8162   72.1250    0.0000
   13.1939   42.8162   73.8750    0.0000
   13.1939   42.8162   75.6250    0.0000
   13.1939   42.8162   77.3750    0.0000
   13.1939   42.8162   79.1250    0.0000
   13.2061   42.8038   10.8750    0.0000
   13.2061   42.8038   12.6250    0.0000
   13.2061   42.8038   14.3750    0.0000
   13.2061   42.8038   16.1250    0.0000
   13.2061   42.8038   17.8750    0.0000
   13.2061   42.8038   19.6250    0.0000
   13.2061   42.8038   21.3750    0.0000
   13.2061   42.8038   23.1250    0.0000
   13.2061   42.8038   24.8750    0.0000
   13.2061   42.8038   26.6250    0.0000
   13.2061   42.8038   28.3750    0.0000
   13.2061   42.8038   30.1250    0.0000
   13.2061   42.8038   31.8750    0.0000
   13.2061   42.8038   33.6250    0.0000
   13.2061   42.8038   35.3750    0.0000
   13.2061   42.8038   37.1250    0.0000
   13.2061   42.8038   38.8750    0.0000
   13.2061   42.8038   40.6250    0.0000
   13.2061   42.8038   42.3750    0.0000
   13.2061   42.8038   44.1250    0.0000
   13.2061   42.8038   45.8750    0.0000
   13.2061   42.8038   47.6250    0.0000
   13.2061   42.8038   49.3750    0.0000
   13.2061   42.8038   51.1250    0.0000
   13.2061   42.8038   52.8750    0.0000
   13.2061   42.8038   54.6250    0.0000
   13.2061   42.8038   56.3750    0.0000
   13.2061   42.8038   58.1250    0.0000
   13.2061   42.8038   59.8750    1.0000
   13.2061   42.8038   61.6250    0.0000
   13.2061   42.8038   63.3750    0.0000
   13.2061   42.8038   65.1250    0.0000
   13.2061   42.8038   66.8750    0.0000
   13.2061   42.8038   68.6250    0.0000
   13.2061   42.8038   70.3750    0.0000
   13.2061   42.8038   72.1250    0.0000
   13.2061   42.8038   73.8750    0.0000
   13.2061   42.8038   75.6250    0.0000
   13.2061   42.8038   77.3750    0.0000
   13.2061   42.8038   79.1250    0.0000
   13.2061   42.8162   10.8750    0.0000
   13.2061   42.8162   12.6250    0.0000
   13.2061   42.8162   14.3750    0.0000
   13.2061   42.8162   16.1250    0.0000
   13.2061   42.8162   17.8750    0.0000
   13.2061   42.8162   19.6250    0.0000
   13.2061   42.8162   21.3750    0.0000
   13.2061   42.8162   23.1250    0.0000
   13.2061   42.8162   24.8750    0.0000
   13.2061   42.8162   26.6250    0.0000
   13.2061   42.8162   28.3750    0.0000
   13.2061   42.8162   30.1250    0.0000
   13.2061   42.8162   31.8750    0.0000
   13.2061   42.8162   33.6250    0.0000
   13.2061   42.8162   35.3750    0.0000
   13.2061   42.8162   37.1250    0.0000
   13.2061   42.8162   38.8750    0.0000
   13.2061   42.8162   40.6250    0.0000
   13.2061   42.8162   42.3750    0.0000
   13.2061   42.8162   44.1250    0.0000
   13.2061   42.8162   45.8750    0.0000
   13.2061   42.8162   47.6250    0.0000
   13.2061   42.8162   49.3750    0.0000
   13.2061   42.8162   51.1250    0.0000
   13.2061   42.8162   52.8750    0.0000
   13.2061   42.8162   54.6250    0.0000
   13.2061   42.8162   56.3750    0.0000
   13.2061   42.8162   58.1250    0.0000
   13.2061   42.8162   59.8750    1.0000
   13.2061   42.8162   61.6250    0.0000
   13.2061   42.8162   63.3750    0.0000
   13.2061   42.8162   65.1250    0.0000
   13.2061   42.8162   66.8750    0.0000
   13.2061   42.8162   68.6250    0.0000
   13.2061   42.8162   70.3750    0.0000
   13.2061   42.8162   72.1250    0.0000
   13.2061   42.8162   73.8750    0.0000
   13.2061   42.8162   75.6250    0.0000
   13.2061   42.8162   77.3750    0.0000
   13.2061   42.8162   79.1250    0.0000
