OBS DATA:     1        13.09300        42.52600        52.59593         2.00000
OBS DATA:     2        12.92900        42.60400        29.55845         2.00000
OBS DATA:     3        13.19000        42.60300        53.11100         2.00000
OBS DATA:     4        13.29700        42.57400        43.37588         2.00000
OBS DATA:     5        13.36500        42.48300        45.11705         2.00000
OBS DATA:     6        13.22800        42.46400        47.53942         2.00000
OBS DATA:     7        13.46500        42.62800        42.28912         2.00000
OBS DATA:     8        13.05400        42.45900        27.68415         2.00000
OBS DATA:     9        13.42400        42.80000        65.37054         2.00000
OBS DATA:    10        13.14100        42.77700        56.24828         2.00000
OBS DATA:    11        13.03300        42.68800        31.00683         2.00000
OBS DATA:    12        12.97700        42.80600        21.20480         2.00000
OBS DATA:    13        13.43300        42.44500        46.36897         2.00000
OBS DATA:    14        13.55800        42.52800        33.02800         2.00000
OBS DATA:    15        13.30700        42.83700        63.47659         2.00000
OBS DATA:    16        13.30900        42.96600        65.22125         2.00000
OBS DATA:    17        13.24300        42.99100        66.56154         2.00000
OBS DATA:    18        13.13900        42.92000        21.50790         2.00000
OBS DATA:    19        13.43500        42.74900        65.01322         2.00000
OBS DATA:    20        13.27200        43.03000        39.41736         2.00000
OBS DATA:    21        13.32500        43.00700        39.72496         2.00000
OBS DATA:    22        13.28700        42.74300        58.29464         2.00000
OBS DATA:    23        13.35200        42.59900        45.20890         2.00000
OBS DATA:    24        13.40500        42.35400        45.20884         2.00000
OBS DATA:    25        12.65900        43.04300        21.00665         2.00000
OBS DATA:    26        13.19500        43.37600        27.12077         2.00000
OBS DATA:    27        13.58400        42.26600        34.03099         2.00000
OBS DATA:    28        13.11700        42.26800        44.88868         2.00000
OBS DATA:    29        13.56900        42.45000        36.82133         2.00000
OBS DATA:    30        13.04000        42.60300        29.95617         2.00000
OBS DATA:    31        12.68100        42.38500        32.05608         2.00000
OBS DATA:    32        13.68600        42.93500        38.38855         2.00000
OBS DATA:    33        13.60400        42.62300        36.77501         2.00000
OBS DATA:    34        13.25500        42.43900        45.12556         2.00000
OBS DATA:    35        13.40900        42.53600        45.59771         2.00000
OBS DATA:    36        13.21400        42.50900        48.07486         2.00000
OBS DATA:    37        13.28200        42.63400        57.02847         2.00000
OBS DATA:    38        13.33500        42.63000        42.19411         2.00000
OBS DATA:    39        13.39600        42.75700        67.46438         2.00000
